
A12_small_country = {
	slot = 1
	generic = no
	ai = yes
	potential = {
		tag = A12
	}
	has_country_shield = yes
	
	A12_petition_the_emperor = {
		icon = mission_sweat_fealty
		required_missions = { }
		position = 1
		
		trigger = {
			emperor = {
				has_opinion = {
					who = A12
					value = 100
				}
			}
			is_elector = yes
		}
		
		effect = {
			if = {
				limit = { 
					NOT = { owns = 157 } 
					has_dlc = "Emperor" 
				}
				country_event = {
					id = flavor_beepeck.1
					days = 15
				}
			}
			if = {
				limit = { 
					NOT = { owns = 157 } 
					NOT = { has_dlc = "Emperor" }
				}
				emperor = {
					country_event = {
						id = flavor_beepeck.2
						days = 15
					}
				}
			}
		}
	}
	
	A12_halfling_elector = {
		icon = mission_restore_kiev
		required_missions = { A12_petition_the_emperor }
		position = 2
		
		provinces_to_highlight = {
			province_id = 157
			OR = {
				NOT = { owned_by = ROOT }
				NOT = { is_core = ROOT }
			}
		}
		
		trigger = {
			owns_core_province = 157
		}

		effect = {
			dames_forehead_area = {
				limit = {
					NOT = { is_core = ROOT }
					NOT = { owned_by = ROOT }
				}
				add_permanent_claim = ROOT
			}
		}
	}

	A12_alliance_of_opportunity = {
		icon = friends_in_high_places
		required_missions = { A12_halfling_elector }
		position = 3
		
		trigger = {
			OR = {
				AND = { 
					alliance_with = A01
					NOT = { alliance_with = A13 }
				}
				AND = {
					alliance_with = A13
					NOT = { alliance_with = A01 }
				}
			}
		}

		effect = {
			custom_tooltip = alliance_of_opportunity_tooltip
			if = {
				limit = { alliance_with = A01 }
				lorentish_approach_area = {
					limit = {
						NOT = { is_core = ROOT }
						NOT = { owned_by = ROOT }
					}
					add_permanent_claim = ROOT
				}
				norley_area = {
					limit = {
						NOT = { is_core = ROOT }
						NOT = { owned_by = ROOT }
					}
					add_permanent_claim = ROOT
				}
				if = {
					limit = { 
						66 = {
							NOT = { is_core = ROOT }
							NOT = { owned_by = ROOT }
						}
					}
					66 = {
						add_permanent_claim = ROOT
					}
				}
			}
			if = {
				limit = { alliance_with = A13 }
				the_borders_area = {
					limit = {
						NOT = { is_core = ROOT }
						NOT = { owned_by = ROOT }
					}
					add_permanent_claim = ROOT
				}
				thomsbridge_area = {
					limit = {
						NOT = { is_core = ROOT }
						NOT = { owned_by = ROOT }
					}
					add_permanent_claim = ROOT
				}
				if = {
					limit = { 
						63 = {
							NOT = { is_core = ROOT }
							NOT = { owned_by = ROOT }
						}
					}
					63 = {
						add_permanent_claim = ROOT
					}
				}
			}
		}
	}
	
	A12_liberate_small_country = {
		icon = mission_unite_home_region
		required_missions = { A12_alliance_of_opportunity }
		position = 4
		
		provinces_to_highlight = {
			OR = {
				area = the_borders_area
				area = thomsbridge_area
				area = norley_area
				area = lorentish_approach_area
			}
			NOT = {
				country_or_non_sovereign_subject_holds = ROOT
			}
		}
		
		trigger = {
			OR = {
				AND = {
					lorentish_approach_area = {
						type = all
						country_or_non_sovereign_subject_holds = ROOT
					}
					norley_area = {
						type = all
						country_or_non_sovereign_subject_holds = ROOT
					}
				}
				AND = {
					the_borders_area = {
						type = all
						country_or_non_sovereign_subject_holds = ROOT
					}
					thomsbridge_area = {
						type = all
						country_or_non_sovereign_subject_holds = ROOT
					}
				}
			}
		}

		effect = {
			add_prestige = 10
			add_country_modifier = {
				name = "army_enthusiasm"
				duration = 9125 #25 years
			}
		}
	}

}

A12_misc = {
	slot = 2
	generic = no
	ai = yes
	potential = {
		tag = A12
	}
	has_country_shield = yes
	
	A12_heavy_ships = {
		icon = mission_establish_high_seas_navy
		required_missions = { }
		position = 1
		
		trigger = {
			num_of_heavy_ship = 15
		}

		effect = {
			add_prestige = 10
			add_country_modifier = {
				name = "naval_enthusiasm_mission"
				duration = 9125 #25 years
			}			
		}
	}
	
	A12_conquer_uelaire = {
		icon = expand_the_terraferma
		required_missions = { A12_halfling_elector }
		position = 3
		
		provinces_to_highlight = {
			OR = {
				province_id = 207
				province_id = 209
				province_id = 347
			}
			NOT = {
				country_or_non_sovereign_subject_holds = ROOT
			}
		}
		
		trigger = {
			owns_or_non_sovereign_subject_of = 207
			owns_or_non_sovereign_subject_of = 209
			owns_or_non_sovereign_subject_of = 347
		}

		effect = {
			exwes_area = {
				limit = {
					NOT = { is_core = ROOT }
					NOT = { owned_by = ROOT }
				}
				add_permanent_claim = ROOT
			}
		}
	}

	A12_conquer_exwes = {
		icon = expand_the_terraferma
		required_missions = { A12_conquer_uelaire }
		position = 4
		
		provinces_to_highlight = {
			area = exwes_area
			NOT = { country_or_non_sovereign_subject_holds = ROOT }
		}
		
		trigger = {
			exwes_area = {
				type = all
				country_or_non_sovereign_subject_holds = ROOT
			}
		}

		effect = {
			add_prestige = 10
			add_manpower = 5
			add_stability_or_adm_power = yes
		}
	}

	A12_colonial_endralliande = {
		icon = mission_settlers_north_america
		required_missions = { A12_anbenncost_trade }
		position = 5
		
		trigger = {
			custom_trigger_tooltip = {
				tooltip = A12_colonial_endralliande_tooltip
				any_subject_country = {
					is_colonial_nation_of = ROOT
					capital_scope = { colonial_region = colonial_endralliande }
					num_of_cities = 10
				}
			}
		}
		effect = {
			add_country_modifier = {
				name = "colonial_enthusiasm"
				duration = 9125
			}			
		}
	}
	
	A12_trade_company_region_abroad = {
		icon = mission_trade_company_region_abroad
		required_missions = { A12_colonial_endralliande }
		trigger = {
			custom_trigger_tooltip = {
				tooltip = trade_company_region_abroad_tooltip
				calc_true_if = {
					all_trade_node = {
						calc_true_if = {
							all_trade_node_member_province = {
								owned_by = ROOT
								is_node_in_trade_company_region = yes
								NOT = { continent = CAPITAL }
							}
							amount = 5
						}
					}
					amount = 3
				}
			}
		}
		effect = {
			add_country_modifier = {
				name = "east_india_trade_rush"
				duration = 9125 #25 years
			}
		}
	}

	A12_sarhal_placeholder = {
		icon = mission_west_african_ports
		required_missions = { A12_trade_company_region_abroad }
		
		trigger = {
		
		}
		
		effect = {

		}
	}

}

A12_trade = {
	slot = 3
	generic = no
	ai = yes
	potential = {
		tag = A12
	}
	has_country_shield = yes
	
	A12_light_ships = {
		icon = mission_galleys_in_port
		required_missions = { }
		position = 1
		
		trigger = {
			num_of_light_ship = 10
		}

		effect = {
			add_navy_tradition = 10
			country_event = {
				id = flavor_beepeck.5
			}
		}
	}

	A12_damescrown_trade = {
		icon = mission_conquer_riga
		required_missions = { A12_light_ships A12_utilize_the_estuary }
		position = 2
		
		trigger = {
			151 = {
				trade_share = {
					country = A12
					share = 30
				}
			}
		}

		effect = {
			add_country_modifier = {
				name = "beepeck_damescrown_trade_draw"
				duration = 9125 #25 years
			}			
		}
	}

	A12_trade_league = {
		icon = contracts_of_correspondence
		required_missions = { A12_damescrown_trade}
		position = 3
		
		trigger = {
			if = {
				limit = { has_dlc = "Mare Nostrum" }
				is_trade_league_leader = yes
			}
			else = {
				num_of_allies = 4
			}
		}

		effect = {
			add_prestige = 10
			add_country_modifier = {
				name = "beepeck_trade_diplomacy"
				duration = 5475 #15 years
			}
		}
	}

	A12_anbenncost_trade = {
		icon = mission_heart_of_the_hansa
		required_missions = { A12_trade_league }
		position = 4
		
		trigger = {
			8 = {
				trade_share = {
					country = A12
					share = 15
				}
			}
		}

		effect = {
			add_mercantilism = 3
			add_country_modifier = {
				name = "beepeck_anbenncost_value"
				duration = 9125 #25 years
			}			
		}
	}
	
	A12_viswall_trade = {
		icon = danubian_power
		required_missions = { A12_anbenncost_trade }
		position = 5
		
		trigger = {
			66 = {
				trade_share = {
					country = A12
					share = 25
				}
			}
		}

		effect = {
			add_mercantilism = 4
			add_country_modifier = {
				name = "beepeck_halfling_trade"
				duration = 9125 #25 years
			}
			add_casus_belli = {
				target = A25
				type = cb_trade_war_triggered
				months = 240
			}
		}
	}



	A12_damescrown_trade_war = {
		icon = mission_sea_battles
		required_missions = { A12_viswall_trade }
		position = 6
		
		trigger = {
			OR = {
				is_in_war = {
					attacker_leader = ROOT
					war_score = 50
					defender_leader = A25
				}
				NOT = { exists = A25 }
			}
		}

		effect = {
			add_mercantilism = 5
			add_prestige = 25
			add_dip_power = 100
			hidden_effect = {
				home_trade_node_effect_scope = {
					random_trade_node_member_province = {
						limit = {
							owned_by = ROOT
						}
						save_event_target_as = reward_province
					}
					random_trade_node_member_province = {
						limit = {
							owned_by = ROOT
							is_capital = yes
						}
						save_event_target_as = reward_province
					}
					random_trade_node_member_province = {
						limit = {
							owned_by = ROOT
							development = CAPITAL
							is_capital = no
						}
						save_event_target_as = reward_province
					}
					random_trade_node_member_province = {
						limit = {
							owned_by = ROOT
							development = CAPITAL
							is_capital = no
							development = 20
						}
						save_event_target_as = reward_province
					}
					random_trade_node_member_province = {
						limit = {
							owned_by = ROOT
							development = CAPITAL
							is_capital = no
							development = 25
						}
						save_event_target_as = reward_province
					}
					random_trade_node_member_province = {
						limit = {
							owned_by = ROOT
							development = CAPITAL
							is_capital = no
							development = 30
						}
						save_event_target_as = reward_province
					}
				}
			}
			if = {
				limit = { has_saved_event_target = reward_province }
				event_target:reward_province = {
					add_province_modifier = {
						name = "dominant_trade_hub"
						duration = -1
					}
				}
			}
			else = {
				custom_tooltip = dominant_home_node_reward_tooltip
			}
		}
	}

	A12_damescrown_control = {
		icon = control_coromandel
		required_missions = { A12_damescrown_trade_war }
		position = 7
		
		trigger = {
			151 = {
				trade_share = {
					country = A12
					share = 60
				}
			}
		}

		effect = {
			add_adm_power = 50
			add_dip_power = 50
			add_mil_power = 50
			add_country_modifier = {
				name = "beepeck_damescrown_hegemony"
				duration = -1
			}			
		}
	}
}

A12_development = {
	slot = 4
	generic = no
	ai = yes
	potential = {
		tag = A12
	}
	has_country_shield = yes

	A12_utilize_the_estuary = {
	    icon = mission_early_game_buildings
		required_missions = { }
		position = 1
		
		provinces_to_highlight = {
			OR = {
				province_id = 60
				province_id = 155
			}
			OR = {
				NOT = { owned_by = ROOT }
				NOT = { has_trade_building_trigger = yes }
			}
		}
		
		trigger = {
			60 = {
				owned_by = ROOT
				has_trade_building_trigger = yes
			}
			155 = {
				owned_by = ROOT
				has_trade_building_trigger = yes
			}
		}
		
		effect = {
			add_mercantilism = 3
			add_country_modifier = {
				name = "beepeck_new_market"
				duration = 7300 #20 years
			}
		}
	}
	
	A12_honey_bacon = {
	    icon = feast_of_pheasants
		required_missions = { A12_utilize_the_estuary }
		position = 2
		
		provinces_to_highlight = {
			OR = {
				AND = {
					province_id = 60
					OR = {
						NOT = { owned_by = ROOT }
						NOT = { has_trade_building_trigger = yes }
					}
				}
				AND = {
					province_id = 205
					OR = {
						NOT = { owned_by = ROOT }
						NOT = { has_manufactory_trigger = yes }
					}
				}
			}
		}
		
		trigger = {
			60 = {
				owned_by = ROOT
				has_production_building_trigger = yes
			}
			205 = {
				owned_by = ROOT
				has_manufactory_trigger = yes
			}
		}
		
		effect = {
			205 = {
				add_permanent_province_modifier = {
					name = beepeck_producing_bacon
					duration = -1
				}
			}
			151 = {
				add_permanent_province_modifier = {
					name = beepeck_selling_bacon
					duration = -1
				}
			}
			add_country_modifier = {
				name = "beepeck_new_market"
				duration = 7300 #20 years
			}
		}
	}

	A12_the_honeycomb = {
	    icon = mission_war_chest
		required_missions = { A12_honey_bacon }
		position = 3
		
		trigger = {
			treasury = 2000
		}
		
		effect = {
			country_event = {
				id = flavor_beepeck.4
			}
			add_country_modifier = {
				name = "strong_treasury"
				duration = 9125
			}			
		}
	}

	A12_house_stacking = {
	    icon = mission_rb_the_education_acts
		required_missions = { A12_the_honeycomb }
		position = 4
		
		trigger = {
			treasury = 200
		}
		
		effect = {
			add_treasury = -200
			151 = {
				add_permanent_province_modifier = {
					name = beepeck_house_stacking
					duration = -1
				}
			}
		}
	}

	A12_largest_small_city = {
	    icon = mission_hanseatic_city
		required_missions = { A12_house_stacking }
		position = 5
		
		provinces_to_highlight = {
			province_id = 151
			OR = {
				NOT = { owned_by = ROOT }
				NOT = { development = 52 }
				NOT = { province_trade_power = 120 }
			}
		}
		
		trigger = {
			151 = {
				owned_by = ROOT
				development = 52
				province_trade_power = 120
			}
		}
		
		effect = {
			add_country_modifier = {
				name = "beepeck_merchant"
				duration = -1
			}
			151 = {
				add_center_of_trade_level = 2
				add_base_tax = 1
				add_base_production = 1
				add_base_manpower = 1
				area = {
					limit = { owned_by = ROOT }
					add_province_modifier = {
						name = "growth_of_capital"
						duration = 9125 #25 years
					}
				}
			}
		}
	}

	A12_settle_newacre = {
	    icon = mission_colonial
		required_missions = { }
		position = 6
		
		provinces_to_highlight = {
			province_id = 347
			OR = {
				NOT = { owned_by = ROOT }
				NOT = { num_of_times_improved_by_owner = 5 }
			}
		}
		
		trigger = {
			347 = {
				owned_by = ROOT
				num_of_times_improved_by_owner = 5
			}
		}
		
		effect = {
			add_country_modifier = {
				name = "integrating_new_halflings"
				duration = 9125
			}
			347 = {
				change_culture = imperial_halfling
			}
		}
	}
	
	A12_exwes_mead = {
	    icon = mission_feast
		required_missions = { }
		position = 7
		
		provinces_to_highlight = {
			province_id = 156
			OR = {
				NOT = { owned_by = ROOT }
				NOT = { has_manufactory_trigger = yes }
			}
		}
		
		trigger = {
			156 = {
				owned_by = ROOT
				has_manufactory_trigger = yes
			}
			OR = {
				156 = { culture = imperial_halfling }
				accepted_culture = exwesser
			}
		}
		
		effect = {
			add_country_modifier = {
				name = "beepeck_new_market"
				duration = 7300 #20 years
			}
			156 = {
				change_trade_goods = wine
				add_permanent_province_modifier = {
					name = beepeck_halfling_mead
					duration = -1
				}
			}
		}
	}
	
}

generic_elector_empire = {
	slot = 5
	generic = no
	ai = yes
	potential = {
		OR = {
			tag = A12
			AND = {
				tag = A97
				was_tag = A12
			}
			tag = A25
			tag = A73
		}
	}
	has_country_shield = yes

	A12_maintain_elector_status = {
		icon = mission_monarch_in_throne_room
		required_missions = { }
		position = 6

		trigger = {
			is_elector = yes
			OR = {
				AND = {
					hre_religion_treaty = yes
					has_global_flag = evangelical_union_happened
				}
				hre_religion_locked = yes
			}
		}

		effect = {
			add_prestige = 10
			add_devotion = 10
			add_country_modifier = {
				name = maintained_elector_status
				duration = -1
			}
		}
	}
}