greysheep_coastal_expansion = {
	slot = 1
	generic = no
	ai = yes
	potential = {
		OR = {
			tag = U13
			AND = {
				tag = F78
				was_tag = U13
			}
		}
	}
	has_country_shield = yes

	U13_final_wave = {
		icon = mission_build_up_to_force_limit
		required_missions = {
		}
		position = 1

		trigger = {
			army_size = 10
			num_of_generals = 1
		}

		effect = {
			azka_evran_area = {
				limit = {
					NOT = { is_core = ROOT }
					NOT = { is_permanent_claim = ROOT }
				}
				add_permanent_claim = ROOT
			}
			658 = { add_permanent_claim = ROOT }
			657 = { add_permanent_claim = ROOT }
			651 = { add_permanent_claim = ROOT }
		}
	}

	U13_second_time = {
		icon = mission_burning_castle
		required_missions = { U13_final_wave
		}
		position = 2
		
		provinces_to_highlight = {
			OR = {
				AND = {
					area = azka_evran_area
					OR = {
						NOT = { owned_by = ROOT }
						NOT = { is_core = ROOT }
					}
				}
				owned_by = F34
			}
		}
		
		trigger = {
			has_institution = feudalism
			NOT = { exists = F34 }
			azka_evran_area = {
				type = all
				owned_by = ROOT
				is_core = ROOT
			}
		}

		effect = {
			aqatbahar_area = {
				limit = {
					NOT = { is_core = ROOT }
					NOT = { is_permanent_claim = ROOT }
				}
				add_permanent_claim = ROOT
			}
			535 = { add_permanent_claim = ROOT }
			534 = { add_permanent_claim = ROOT }
		}
	}

	U13_takeover = {
		icon = mission_monarch_in_throne_room
		required_missions = { U13_second_time
		}
		position = 3
		
		provinces_to_highlight = {
			OR = {
				AND = {
					area = aqatbahar_area
					OR = {
						NOT = { owned_by = ROOT }
						NOT = { is_core = ROOT }
					}
				}
				owned_by = U15
			}
		}
		
		trigger = {
			is_at_war = no
			NOT = { exists = U15 }
			aqatbahar_area = {
				type = all
				owned_by = ROOT
				is_core = ROOT
			}
			adm_power = 100
			treasury = 75
		}

		effect = {
			add_adm_power = -100
			add_treasury = -75
			small_increase_of_human_tolerance_effect = yes
			change_government_reform_progress = 50
			every_core_province = {
				limit = { is_core = U15 }
				remove_core = U15
			}
			set_capital = 536
		}
	}

	U13_elven_coast = {
		icon = mission_assemble_an_army
		required_missions = { U13_takeover U13_gelkalis
		}
		position = 4

		trigger = {
			OR = {
				has_country_modifier = exodus_goblin_invasion
				has_global_modifier_value = {
					which = global_manpower
					value = 0.6
				}
			}
			num_of_generals_with_traits = 1
			army_size = 30
		}

		effect = {
			add_country_modifier = {
				name = U13_coastal_invasion
				duration = 10950
			}
			birsartenslib_area = {
				limit = {
					NOT = { is_core = ROOT }
					NOT = { is_permanent_claim = ROOT }
				}
				add_permanent_claim = ROOT
			}
			imuluses_area = {
				limit = {
					NOT = { is_core = ROOT }
					NOT = { is_permanent_claim = ROOT }
				}
				add_permanent_claim = ROOT
			}
			kuz_mountains_area = {
				limit = {
					NOT = { is_core = ROOT }
					NOT = { is_permanent_claim = ROOT }
				}
				add_permanent_claim = ROOT
			}
		}
	}

	U13_elves_gtfo = {
		icon = mission_burning_parthenon
		required_missions = { U13_elven_coast
		}
		position = 5
		
		provinces_to_highlight = {
			OR = {
				AND = {
					OR = {
						area = birsartenslib_area
						area = imuluses_area
						area = kuz_mountains_area
					}
					OR = {
						NOT = { owned_by = ROOT }
						NOT = { is_core = ROOT }
					}
				}
				owned_by = F21
			}
		}
		
		trigger = {
			NOT = { exists = F21 }
			birsartenslib_area = {
				type = all
				owned_by = ROOT
				is_core = ROOT
			}
			imuluses_area = {
				type = all
				owned_by = ROOT
				is_core = ROOT
			}
			kuz_mountains_area = {
				type = all
				owned_by = ROOT
				is_core = ROOT
			}
			adm_tech = 7
			accepted_culture = bahari
			accepted_culture = sun_elf
		}

		effect = {
			add_prestige = 30
			change_government_reform_progress = 75
			small_increase_of_human_tolerance_effect = yes
			add_power_projection = {
				type = mission_rewards_power_projection
				amount = 15
			}
		}
	}
}

greysheep_hill_expansion = {
	slot = 2
	generic = no
	ai = yes
	potential = {
		OR = {
			tag = U13
			AND = {
				tag = F78
				was_tag = U13
			}
		}
	}
	has_country_shield = yes

	U13_old_sun = {
		icon = mission_sunset
		required_missions = { U13_final_wave
		}
		position = 2
		
		provinces_to_highlight = {
			OR = {
				province_id = 658
				province_id = 657
				province_id = 651
			}
			OR = {
				NOT = { owned_by = ROOT }
				NOT = { is_core = ROOT }
			}
		}
		
		trigger = {
			owns_core_province = 658
			owns_core_province = 657
			owns_core_province = 651
		}

		effect = {
			bahar_szel_uak_area = {
				limit = {
					NOT = { is_core = ROOT }
					NOT = { is_permanent_claim = ROOT }
				}
				add_permanent_claim = ROOT
			}
			country_event = { id = exodus_goblin_flavour.1 }
		}
	}

	U13_gelkalis = {
		icon = mission_afghan_frontier
		required_missions = { U13_old_sun
		}
		position = 3
		
		provinces_to_highlight = {
			OR = {
				owned_by = F22
				AND = {
					area = bahar_szel_uak_area
					OR = {
						NOT = { owned_by = ROOT }
						NOT = { is_core = ROOT }
					}
				}
				AND = {
					owned_by = F21
					NOT = { ROOT = { is_rival = F21 } }
					F21 = {
						has_opinion = {
							who = ROOT
							value = 0
						}
					}
				}
			}
		}
		
		trigger = {
			NOT = { exists = F22 }
			bahar_szel_uak_area = {
				type = all
				owned_by = ROOT
				is_core = ROOT
			}
			OR = {
				NOT = { exists = F21 }
				is_rival = F21
				F21 = {
					NOT = {
						has_opinion = {
							who = ROOT
							value = 0
						}
					}
				}
			}
		}

		effect = {
			if = {
				limit = { exists = F26 }
				add_casus_belli = {
					target = F26
					type = cb_vassalize_mission
					months = 480
				}
			}
			else = {
				upper_gelkali_area = {
					limit = {
						NOT = { is_core = ROOT }
						NOT = { is_permanent_claim = ROOT }
					}
					add_permanent_claim = ROOT
				}
				gelkalis_area = {
					limit = {
						NOT = { is_core = ROOT }
						NOT = { is_permanent_claim = ROOT }
					}
					add_permanent_claim = ROOT
				}										}
		}
	}

	U13_harpy_deal = {
		icon = mission_harpy_diplomats
		required_missions = { U13_gelkalis
		}
		position = 4
		
		provinces_to_highlight = {
			OR = {
				area = upper_gelkali_area
				area = gelkalis_area
			}
			NOT = { country_or_non_sovereign_subject_holds = ROOT }
		}
		
		trigger = {
			F27 = {
				has_opinion = {
					who = ROOT
					value = 10
				}
			}
			upper_gelkali_area = {
				type = all
				country_or_non_sovereign_subject_holds = ROOT
			}
			gelkalis_area = {
				type = all
				country_or_non_sovereign_subject_holds = ROOT
			}
		}

		effect = {
			F27 = {
				add_trust = {
					who = ROOT
					value = 10
					mutual = yes
				}
				add_opinion = {
					who = ROOT
   				 	modifier = greysheep_deal
				}
			}
			medium_increase_of_harpy_tolerance_effect = yes
			665 = { add_harpy_minority_size_effect = yes }
			capital_scope = { add_harpy_minority_size_effect = yes }
			complete_mission = U13_gelkali_deal
		}
	}
}

greysheep_sheep_branch = {
	slot = 3
	generic = no
	ai = yes
	potential = {
		OR = {
			tag = U13
			AND = {
				tag = F78
				was_tag = U13
			}
		}
	}
	has_country_shield = yes

	U13_surface_world = {
		icon = mission_alliances
		required_missions = {
		}
		position = 1

		trigger = {
			650 = { has_merchant = ROOT }
			OR = {
				U11 = {
					has_opinion = {
						who = ROOT
						value = 100
					}
				}
				U14 = {
					has_opinion = {
						who = ROOT
						value = 100
					}
				}
				U15 = {
					has_opinion = {
						who = ROOT
						value = 100
					}
				}
			}
		}

		effect = {
			add_mercantilism = 3
			define_advisor = {
				type = trader
				skill = 1
				discount = yes
				culture = exodus_goblin
			}
		}
	}

	U13_sheep_grazing = {
		icon = mission_colonial
		required_missions = { U13_surface_world
		}
		position = 2

		provinces_to_highlight = {
			owned_by = ROOT
			trade_goods = wool
			NOT = { has_production_building_trigger = yes }
			NOT = {
				ROOT = {
					num_of_owned_provinces_with = {
						value = 3
						trade_goods = wool
						has_production_building_trigger = yes
					}
				}
			}
		}

		trigger = {
			treasury = 75
			if = {
				limit = { tag = U13 }
				has_idea = U13_pastoral_goblins
			}
			num_of_owned_provinces_with = {
				value = 3
				trade_goods = wool
				has_production_building_trigger = yes
			}
		}

		effect = {
			add_treasury = -75
			custom_tooltip = sheep_grazing_greysheep_tt
			hidden_effect = {
				every_owned_province = {
					limit = { trade_goods = wool }
					add_base_production = 1
					add_province_modifier = {
						name = U13_sheep_grazing
						duration = 7300
					}
				}
			}
		}
	}

	U13_volt_sedovco = {
		icon = mission_mounted_battle
		required_missions = { U13_sheep_grazing U13_old_sun
		}
		position = 3

		provinces_to_highlight = {
			trade_goods = wool
			NOT = { owned_by = ROOT }
			has_discovered = ROOT
			NOT = {
				ROOT = {
					num_of_owned_provinces_with = {
						value = 5
						trade_goods = wool
					}
				}
			}
		}

		trigger = {
			if = {
				limit = { tag = U13 }
				has_idea = U13_volt_sedovco
			}
			mil_tech = 8
			mil_power = 100
			treasury = 100
			num_of_owned_provinces_with = {
				value = 5
				trade_goods = wool
			}
		}

		effect = {
			add_mil_power = -100
			add_treasury = -100
			add_country_modifier = {
				name = U13_volt_sedovco_cavalry
				duration = -1
			}
		}
	}

	U13_gelkali_deal = {
		icon = mission_ahmadabad_paper
		required_missions = { U13_gelkalis
		}
		position = 4
		
		provinces_to_highlight = {
			OR = {
				area = upper_gelkali_area
				area = gelkalis_area
			}
			NOT = { country_or_non_sovereign_subject_holds = ROOT }
		}
		
		trigger = {
			OR = {
				NOT = { exists = F27 }
				F27 = {
					NOT = {
						has_opinion = {
							who = ROOT
							value = 0
						}
					}
				}
			}
			upper_gelkali_area = {
				type = all
				country_or_non_sovereign_subject_holds = ROOT
			}
			gelkalis_area = {
				type = all
				country_or_non_sovereign_subject_holds = ROOT
			}

		}

		effect = {
			small_increase_of_human_tolerance_effect = yes
			small_decrease_of_harpy_tolerance_effect = yes
			decrease_monstrous_3 = yes
			665 = { add_goblin_minority_size_effect = yes }
			capital_scope = { add_human_minority_size_effect = yes }
			complete_mission = U13_harpy_deal
		}
	}

	U13_highland_goblins = {
		icon = mission_potosi_silver
		required_missions = { U13_gelkali_deal U13_harpy_deal U13_newcomers
		}
		position = 5

		provinces_to_highlight = {
			owned_by = ROOT
			devastation = 1
		}

		trigger = {
			manpower_percentage = 0.75
			treasury = 200
			total_development = 100
			all_owned_province = {
				NOT = { devastation = 1 }
			}
		}

		effect = {
			add_treasury = -200
			add_yearly_manpower = -0.25
			decrease_monstrous_2 = yes
			custom_tooltip = highland_goblin_tt
			hidden_effect = {
				every_owned_province = {
					limit = {
						superregion = bulwar_superregion
						OR = {
							has_terrain = mountain
							has_terrain = highlands
						}
					}
					add_province_modifier = {
						name = U13_highland_goblins
						duration = -1
					}
				}
			}
		}
	}
}

greysheep_development = {
	slot = 4
	generic = no
	ai = yes
	potential = {
		OR = {
			tag = U13
			AND = {
				tag = F78
				was_tag = U13
			}
		}
	}
	has_country_shield = yes

	U13_our_new_home = {
		icon = mission_early_game_buildings
		required_missions = {
		}
		position = 1

		provinces_to_highlight = {
			OR = {
				province_id = 649
				province_id = 652
				province_id = 650
			}
			NOT = { base_manpower = 3 }
		}

		trigger = {
			treasury = 100
			649 = { base_manpower = 3 }
			652 = { base_manpower = 3 }
			650 = { base_manpower = 3 }
		}

		effect = {
			650 = {
				add_province_modifier = {
					name = U13_gorihradin_defence
					duration = 12775
				}
				add_building_construction = {
					building = fort_15th
					speed = 0.5
					cost = 0.5
				}
			}
		}
	}

	U13_greysheep_style = {
		icon = mission_expand_textile_industry
		required_missions = { U13_our_new_home U13_queen_slay
		}
		position = 2

		provinces_to_highlight = {
			owned_by = ROOT
			trade_goods = wool
			NOT = { has_trade_building_trigger = yes }
			NOT = {
				ROOT = {
					num_of_owned_provinces_with = {
						value = 3
						trade_goods = wool
						has_trade_building_trigger = yes
					}
				}
			}
		}

		trigger = {
			treasury = 75
			advisor = trader
			OR = {
				has_ruler = "Guklo"
				monthly_dip = 9
			}
			num_of_owned_provinces_with = {
				value = 3
				trade_goods = wool
				has_trade_building_trigger = yes
			}
		}

		effect = {
			add_treasury = -75
			add_country_modifier = {
				name = U13_style
				duration = 7300
			}
		}
	}

	U13_mining = {
		icon = mission_mechanical_mining
		required_missions = { U13_greysheep_style
		}
		position = 3

		provinces_to_highlight = {
			owned_by = ROOT
			OR = {
				trade_goods = iron
				trade_goods = copper
			}
			OR = {
				NOT = { has_production_building_trigger = yes }
				NOT = { has_tax_building_trigger = yes }
				NOT = { num_of_times_improved = 5 }
			}
			NOT = {
				ROOT = {
					num_of_owned_provinces_with = {
						value = 4
						OR = {
							trade_goods = iron
							trade_goods = copper
						}
						has_production_building_trigger = yes
						has_tax_building_trigger = yes
						num_of_times_improved = 5
					}
				}
			}
		}

		trigger = {
			num_of_owned_provinces_with = {
				value = 4
				OR = {
					trade_goods = iron
					trade_goods = copper
				}
				has_production_building_trigger = yes
				has_tax_building_trigger = yes
				num_of_times_improved = 5
			}
			OR = {
				treasury = 100
				has_country_modifier = U13_style
			}
		}

		effect = {
			add_mercantilism = 3
			add_country_modifier = {
				name = U13_mining_expansion
				duration = 7300
			}
		}
	}

	U13_newcomers = {
		icon = mission_cope_with_refugees
		required_missions = { U13_mining
		}
		position = 4

		trigger = {
			OR = {
				any_known_country = {
					capital_scope = { region = serpentreach_region }
					OR = { 	culture_group = goblin
						has_country_modifier = racial_pop_goblin_purge
						has_country_modifier = racial_pop_goblin_expulsion
					}
				}
				any_owned_province = {
					region = serpentreach_region
				}
			}
			if = {
				limit = { tag = U13 }
				has_idea = U13_continued_exodus
			}
			adm_power = 75
			dip_power = 75
		}

		effect = {
			add_adm_power = -75
			add_dip_power = -75
			custom_tooltip = newcomer_settlement_tt 
				hidden_effect = {
					every_owned_province = {
					limit = {
						OR = {
							trade_goods = iron
							trade_goods = copper
							trade_goods = wool
						}
					}
					add_base_production = 1
					add_goblin_minority_size_effect = yes
				}
			}
		}
	}
}

greysheep_fashion = {
	slot = 5
	generic = no
	ai = yes
	potential = {
		OR = {
			tag = U13
			AND = {
				tag = F78
				was_tag = U13
			}
		}
	}
	has_country_shield = yes

	U13_queen_slay = {
		icon = mission_female_throne
		required_missions = {
		}
		position = 1

		trigger = {
			is_female = yes
			OR = {
				alliance_with = F27
				is_rival = F27
				F27 = { is_rival = ROOT }
				NOT = { exists = F27 }
			}
		}

		effect = {
			if = {
				limit = {
					alliance_with = F27
				}
				650 = {
					add_trade_modifier = {
						who = ROOT
   						duration = 3650
   						power = 10
   		 				key = STRONG_MERCHANTS
					}
				}
				F27 = {
					add_trust = {
						who = ROOT
						value = 10
						mutual = yes
					}
				}
			}
			else = {
				add_power_projection = {
					type = mission_rewards_power_projection
					amount = 10
				}
			}
		}
	}

	U13_emulate_harpies = {
		icon = mission_gujarati_textiles
		required_missions = { U13_queen_slay
		}
		position = 2

		trigger = {
			OR = {
				F27 = {
					has_opinion = {
						who = ROOT
						value = 175
					}
				}
				custom_trigger_tooltip = {
					tooltip = harpy_trade_building_tt
					any_owned_province = {
						has_any_harpy_pop_trigger = yes
						has_trade_building_trigger = yes
					}
				}
			}
		}

		effect = {
			small_increase_of_harpy_tolerance_effect = yes
			custom_tooltip = harpy_style_emulation_tt
				hidden_effect = {
					every_owned_province = {
					limit = { trade_goods = wool }
					add_province_modifier = {
						name = U13_emulating_harpies
						duration = 7300
					}
				}
			}
		}
	}

	U13_export = {
		icon = mission_african_gold
		required_missions = { U13_emulate_harpies U13_greysheep_style
		}
		position = 3

		provinces_to_highlight = {
			OR = {
				AND = {
					owned_by = ROOT
					trade_goods = wool
					NOT = { base_production = 5 }
					NOT = {
						ROOT = {
							num_of_owned_provinces_with = {
								value = 3
								trade_goods = wool
								base_production = 5
							}
						}
					}
				}
				AND = {
					owned_by = ROOT
					trade_goods = cloth
					NOT = { base_production = 10 }
					NOT = {
						ROOT = {
							any_owned_province = {
								trade_goods = cloth
								base_production = 10
							}
						}
					}
				}
			}
		}

		trigger = {
			num_of_owned_provinces_with = {
				value = 3
				trade_goods = wool
				base_production = 5
			}
			any_owned_province = {
				trade_goods = cloth
				base_production = 10
			}
			any_known_country = {
				culture_group = goblin
				has_opinion = {
					who = ROOT
					value = 75
				}
			}
		}

		effect = {
			add_mercantilism = 3
			add_country_modifier = {
				name = U13_trade_export
				duration = 9125
			}
		}
	}

	U13_expand_market = {
		icon = mission_market_place_with_asian_traders
		required_missions = { U13_export
		}
		position = 4

		trigger = {
			custom_trigger_tooltip = {
				tooltip = semi_or_non_monstrous_tt
				OR = {
					has_country_flag = semi_monstrous
					has_country_flag = no_longer_monstrous
					NOT = { has_country_modifier = monstrous_nation }
				}
			}
			any_known_country = {
				capital_scope = { superregion = bulwar_superregion }
				NOT = { has_country_modifier = monstrous_nation }
				has_opinion = {
					who = ROOT
					value = 100
				}
			}
		}

		effect = {
			decrease_monstrous_5 = yes
			add_mercantilism = 3
			add_years_of_income = 0.5
		}
	}

	U13_gobchi_fashion = {
		icon = mission_steer_trade_to_bengal
		required_missions = { U13_expand_market U13_newcomers
		}
		position = 5

		provinces_to_highlight = {
			owned_by = ROOT
			OR = {
				trade_goods = wool
				trade_goods = cloth
			}
			NOT = { has_manufactory_trigger = yes }
			NOT = {
				ROOT = {
					num_of_owned_provinces_with = {
						value = 7
						OR = {
							trade_goods = wool
							trade_goods = cloth
						}
						has_manufactory_trigger = yes
					}
				}
			}
		}

		trigger = {
			mercantilism = 35
			OR = {
				has_institution = global_trade
				any_owned_province = { 
					province_has_center_of_trade_of_level = 3
				}
			}
			num_of_owned_provinces_with = {
				value = 7
				OR = {
					trade_goods = wool
					trade_goods = cloth
				}
				has_manufactory_trigger = yes
			}
			if = {
				limit = { tag = U13 }
				has_idea = U13_goblinic_fashion
			}
		}

		effect = {
			add_country_modifier = {
				name = U13_fashion_is_my_passion
				duration = -1
			}
		}
	}
}
