##BranchStart 1
G40_1 = {
	slot = 2
	generic = no
	ai = yes
	potential = {
		tag = G40
	}
	has_country_shield = yes
	
	##Mission Start
	G40_glimpse_beyond = {
		icon = mission_protect_white_sea_trade
		required_missions = {
			G40_the_first_council
		}
		position = 2
		trigger = {
			custom_trigger_tooltip = {
				tooltip = dotim_dream_of_the_world_above_tt
				has_country_flag = dotim_unlocked_winged_beast
			}
			custom_trigger_tooltip = {
				tooltip = dotim_dream_of_all_things_tt
				has_country_flag = dotim_unlocked_colour_of_all_things
			}
		}
		effect = {
			random_province = {
				limit = { tribal_land_of = ROOT }
				add_permanent_province_modifier = {
					name = tehanek_site_1
					duration = -1
				}
				hidden_effect = {
					save_global_event_target_as = tehanek_site
				}
			}
			set_country_flag = tehanek_province_chosen
		}
	}
	##Mission End
	##Mission Start
	G40_seeking_deeper_knowledge = {
		icon = mission_mnd_khm_resurgence
		required_missions = {
			G40_glimpse_beyond
		}
		position = 3
		provinces_to_highlight = {
			if = {
				limit = { 
					G40 = { has_country_flag = tehanek_province_chosen }
				}
				province_id = event_target:tehanek_site
			}
			else = {
				always = no
			}
		}
		trigger = {
			if = {
				limit = { has_country_flag = tehanek_province_chosen }
				event_target:tehanek_site = {
					development_discounting_tribal = 10
					owned_by = ROOT
				}
			}
			treasury = 100
			manpower = 0.1
		}
		effect = {
			add_treasury = -100
			add_manpower = -0.1
			event_target:tehanek_site = {
				remove_province_modifier = tehanek_site_1
				add_permanent_province_modifier = {
					name = tehanek_site_2
					duration = -1
				}
			}
		}
	}
	##Mission End
	##Mission Start
	G40_prepare_the_site = {
		icon = mission_gain_mana
		required_missions = {
			G40_seeking_deeper_knowledge
		}
		position = 4
		trigger = {
			OR = {
				court_mage = 2
				ruler_has_mage_personality = yes
			}
		}
		effect = {
			event_target:tehanek_site = {
				add_permanent_province_modifier = {
					name = tehanek_prepare_site
					duration = 3650
				}
			}
		}
	}
	##Mission End
	##Mission Start
	G40_a_fragment_of_power = {
		icon = mission_the_surge
		required_missions = {
			G40_prepare_the_site
		}
		position = 5
		provinces_to_highlight = {
			if = {
				limit = { 
					G40 = { has_country_flag = tehanek_province_chosen }
				}
				province_id = event_target:tehanek_site
			}
			else = {
				always = no
			}
		}
		trigger = {
			if = {
				limit = { has_country_flag = tehanek_province_chosen }
				event_target:tehanek_site = {
					NOT = {
						has_province_modifier = tehanek_prepare_site
					}
					owned_by = ROOT
				}
			}
			custom_trigger_tooltip = {
				tooltip = dotim_dream_of_reshaping_tt
				has_country_flag = dotim_unlocked_beast_of_stone
			}
			church_power = 100
		}
		effect = {
			add_church_power = -100
			event_target:tehanek_site = {
				change_trade_goods = precursor_relics
				set_add_relics_count = yes
			}
			clr_country_flag = tehanek_province_chosen
			add_country_modifier = {
				name = tehanek_lost_knowledge
				duration = 7300
			}
		}
	}
	##Mission End
	##
	
}
##BranchEnd 1
##BranchStart 2
G40_2 = {
	slot = 3
	generic = no
	ai = yes
	potential = {
		tag = G40
	}
	has_country_shield = yes
	
	##Mission Start
	G40_the_first_council = {
		icon = mission_iroquois_haudenosaunee
		required_missions = {
			
		}
		position = 1
		trigger = {
			employed_advisor = {
				category = ADM
			}
			employed_advisor = {
				category = DIP
			}
			employed_advisor = {
				category = MIL
			}
			if = {
				limit = { has_native_migration_government = yes }
				native_ceremonial_fire_pit = 1
			}
			else = {
				stability = 2
			}
		}
		effect = {
			add_stability_or_adm_power = yes
			add_country_modifier = {
				name = tehanek_first_council
				duration = 3650
			}
		}
	}
	##Mission End
	##Mission Start
	G40_the_knowledge_of_others = {
		icon = mission_che_botanical_exports
		required_missions = {
			G40_the_first_council
		}
		position = 2
		provinces_to_highlight = {
			is_capital_of = G04
		}
		trigger = {
			if = {
				limit = {
					exists = G04
				}
				G04 = {
					capital_scope = {
						controlled_by = ROOT
					}
				}
			}
			else = {
				NOT = { exists = G04 }
			}
		}
		effect = {
			add_church_power = 50
		}
	}
	##Mission End
	##Mission Start
	G40_the_second_council = {
		icon = mission_iroquois_the_five_nations
		required_missions = {
			G40_the_knowledge_of_others
			G40_the_arrival
		}
		position = 3
		provinces_to_highlight = {
			is_capital = yes
			owner = {
				culture = boek
			}
		}
		trigger = {
			if = {
				limit = {
					calc_true_if = {
						all_known_country = {
							culture = boek
						}
						amount = 2
					}
				}
				calc_true_if = {
					all_known_country = {
						culture = boek
						has_opinion = {
							who = ROOT
							value = 100
						}
					}
					amount = 2
				}
			}
			NOT = { government = native }
		}
		effect = {
			hidden_effect = { country_event = { id = flavour_tehanek.2 } }
			tooltip = {
				add_country_modifier = {
					name = tehanek_second_council
					duration = 5475
				}
				every_known_country = {
					limit = {
						culture = boek
						has_opinion = {
							who = ROOT
							value = 100
						}
					}
					add_country_modifier = {
						name = tehanek_second_council
						duration = 5475
					}
				}
			}
		}
	}
	##Mission End
	##Mission Start
	G40_the_mages_proposal = {
		icon = mission_che_the_beloved_woman
		required_missions = {
			G40_the_second_council
		}
		position = 4
		trigger = {
			estate_influence = {
				estate = estate_mages
				influence = 40
			}
			has_estate_privilege = estate_mages_organization_state
			NOT = { government = native }
		}
		effect = {
			if = {
				limit = {
					NOT = { government = theocracy }
				}
				change_government = theocracy
			}
			add_government_reform = tehanek_magocracy_reform
			add_country_modifier = {
				name = tehanek_opposition
				duration = -1
			}
			hidden_effect = {
				if = {
					limit = { mission_completed = G40_the_red_eagle }
					country_event = {
						id = flavour_tehanek.1
						days = 1825
					}
				}
			}
		}
	}
	##Mission End
	##Mission Start
	G40_the_aspect_of_knowledge = {
		icon = mission_se_along_the_river
		required_missions = {
			G40_a_fragment_of_power
			G40_fell_the_winged
		}
		position = 6
		trigger = {
			unlocked_all_tier_2_dotim_aspects = yes
			is_divination_3 = yes
		}
		effect = {
			hidden_effect = { country_event = { id = flavour_tehanek.5 } }
			tooltip = {
				custom_tooltip = dotim_unlock_primordial_wings_tt
				add_country_modifier = {
					name = tehanek_aspect_of_knowledge
					duration = -1
				}
			}
		}
	}
	##Mission End
	##
	
}
##BranchEnd 2
##BranchStart 3
G40_3 = {
	slot = 4
	generic = no
	ai = yes
	potential = {
		tag = G40
	}
	has_country_shield = yes
	
	##Mission Start
	G40_the_arrival = {
		icon = mission_raid_christian_trade
		required_missions = {
		}
		position = 2
		provinces_to_highlight = {
			region = trollsbay_region
			owner = {
				culture_is_not_ruinborn = yes
			}
		}
		trigger = {
			if = {
				limit = { NOT = { is_year = 1600 } }
				trollsbay_region = {
					owner = {
						culture_is_not_ruinborn = yes
					}
					is_city = yes
				}
			}
			else = {
				is_year = 1600
			}
		}
		effect = {
			add_country_modifier = {
				name = tehanek_making_contact
				duration = 9125
			}
		}
	}
	##Mission End
	##Mission Start
	G40_studying_the_invaders = {
		icon = mission_sio_european_trade
		required_missions = {
			G40_the_arrival
		}
		position = 3
		provinces_to_highlight = {
			owner = {
				culture_is_not_ruinborn = yes
			}
			has_discovered = ROOT
		}
		trigger = {
			any_known_country = {
				culture_is_not_ruinborn = yes
				has_spy_network_from = {
					who = ROOT
					value = 50
				}
			}
		}
		effect = {
			add_country_modifier = {
				name = tehanek_studying_settlers
				duration = 5475
			}
		}
	}
	##Mission End
	##Mission Start
	G40_unity_in_the_east = {
		icon = mission_che_the_council_house
		required_missions = {
			G40_studying_the_invaders
		}
		position = 4
		provinces_to_highlight = {
			##PROVINCESHIGHLIGHTCODE
		}
		trigger = {
			stability = 3
			adm_power = 200
			num_of_provinces_in_states = 10
		}
		effect = {
			add_adm_power = -200
			add_country_modifier = {
				name = tehanek_eastern_unity
				duration = 18250
			}
			if = {
				limit = { exists = G04 }
				add_casus_belli = {
					target = G04
					type = cb_vassalize_mission
					months = 18250
				}
			}
		}
	}
	##Mission End
	##Mission Start
	G40_fell_the_winged = {
		icon = mission_native_build_army_mission
		required_missions = {
			G40_the_mages_proposal
			G40_unity_in_the_east
			G40_the_red_eagle
		}
		position = 5
		trigger = {
			if = {
				limit = {
					NOT = { has_country_flag = red_eagle_won }
				}
				custom_trigger_tooltip = {
					tooltip = tehanek_crush_rebels_tt
					has_country_flag = red_eagle_rose_up
					NOT = { num_of_rebel_armies = 1 }
					NOT = { num_of_rebel_controlled_provinces = 1 }
				}
			}
			else = {
				mil_power = 300
			}
			has_church_aspect = winged_beast
		}
		effect = {
			if = {
				limit = {
					has_country_flag = red_eagle_won
				}
				add_mil_power = -300
			}
			country_event = {
				id = flavour_tehanek.4
			}
			add_country_modifier = {
				name = tehanek_forbidden_knowledge
				duration = 7300
			}
		}
	}
	##Mission End
	##
	
}
##BranchEnd 3
##BranchStart 4
G40_4 = {
	slot = 5
	generic = no
	ai = yes
	potential = {
		tag = G40
	}
	has_country_shield = yes
	
	##Mission Start
	G40_negotiating_borders = {
		icon = mission_alliances
		required_missions = {
			G40_the_arrival
		}
		position = 3
		provinces_to_highlight = {
			owner = {
				culture_is_not_ruinborn = yes
			}
			has_discovered = ROOT
		}
		trigger = {
			diplomatic_reputation = 1
			any_known_country = {
				culture_is_not_ruinborn = yes
				has_opinion = {
					who = ROOT
					value = 50
				}
			}
			dip_power = 100
		}
		effect = {
			add_dip_power = -100
			cestirmark_area = {
				limit = {
					NOT = { is_core = ROOT }
					NOT = { is_permanent_claim = ROOT }
				}
				add_permanent_claim = ROOT
			}
			marlliande_area = {
				limit = {
					NOT = { is_core = ROOT }
					NOT = { is_permanent_claim = ROOT }
				}
				add_permanent_claim = ROOT
			}
			backwoods_area = {
				limit = {
					NOT = { is_core = ROOT }
					NOT = { is_permanent_claim = ROOT }
				}
				add_permanent_claim = ROOT
			}
			vincenton_area = {
				limit = {
					NOT = { is_core = ROOT }
					NOT = { is_permanent_claim = ROOT }
				}
				add_permanent_claim = ROOT
			}
		}
	}
	##Mission End
	##Mission Start
	G40_the_red_eagle = {
		icon = mission_iroquois_the_great_peacemaker
		required_missions = {
			G40_negotiating_borders
		}
		position = 4
		provinces_to_highlight = {
			area = backwoods_area
			OR = {
				NOT = { 
					base_manpower = 5
				}
				NOT = {
					owned_by = ROOT
				}
			}
		}
		trigger = {
			backwoods_area = {
				type = all
				base_manpower = 5
				owned_by = ROOT
			}
		}
		effect = {
			define_general = {
				fire = 1
				shock = 6
				manuever = 6
				siege = 0
				name = "Hewehr'ittaro"
			}
			add_country_modifier = {
				name = tehanek_red_eagle_mantle
				duration = 3650
			}
			hidden_effect = {
				if = {
					limit = { mission_completed = G40_the_mages_proposal }
					country_event = {
						id = flavour_tehanek.1
						days = 1825
					}
				}
			}
		}
	}	
}