country_decisions = {
	
	eordandwoodelf_restore_salla_elyn = {
		major = yes
		potential = {
			tag = H21
			has_country_flag = eordand_deepwoods_ally
			NOT = { exists = I45 }
			OR = {
				NOT = { exists = I26 }
				I26 = {
					is_subject_of = ROOT
				}
				alliance_with = I26
			}
		}
		provinces_to_highlight = {
			OR = {
				area = sawelear_area
				area = sawallar_area
			}
		}
		allow = {
			OR = {	
				num_of_owned_provinces_with = {
					area = sawallar_area
					value = 1
				}
				num_of_owned_provinces_with = {
					area = sawelear_area
					value = 1
				}
			}
		}
		
		effect = {
			if = {
				limit = {
					NOT = { exists = I26 }
				}
				every_province = {
					limit = {
						OR = {
							area = sawelear_area
							area = sawallar_area
						}
						owned_by = ROOT
					}
					cede_province = I26
				}
				vassalize = I26
				I26 = {
					add_country_modifier = { name = eord_eordan_assistance duration = 3650 }
					add_opinion = {
						modifier = eordand_familiar_forest_ally
						who = ROOT
					}
				}
				add_country_modifier = { name = eord_salla_elyn duration = 3650 }
			}
			else_if = {
				limit = {
					exists = I26
				}
				every_province = {
					limit = {
						OR = {
							area = sawelear_area
							area = sawallar_area
						}
						owned_by = ROOT
					}
					cede_province = I26
				}
				
				I26 = {
					add_country_modifier = { name = eord_eordan_assistance duration = 3650 }
					add_opinion = {
						modifier = returned_core_to_me
						who = ROOT
					}
				}
				add_country_modifier = { name = eord_salla_elyn duration = 3650 }
			}
		}
	}
	
	eordandwoodelf_restore_salla_myna = {
		major = yes
		potential = {
			tag = H21
			has_country_flag = eordand_deepwoods_ally
			NOT = { exists = I45 }
			OR = {
				NOT = { exists = I27 }
				I27 = {
					is_subject_of = ROOT
				}
				alliance_with = I27
			}
		}
		provinces_to_highlight = {
			OR = {
				area = clirypriah_area
				area = prehnryn_area
			}
		}
		allow = {
			OR = {	
				num_of_owned_provinces_with = {
					area = clirypriah_area
					value = 1
				}
				num_of_owned_provinces_with = {
					area = prehnryn_area
					value = 1
				}
			}
		}
		
		effect = {
			if = {
				limit = {
					NOT = { exists = I27 }
				}
				every_province = {
					limit = {
						OR = {
							area = clirypriah_area
							area = prehnryn_area
						}
						owned_by = ROOT
					}
					cede_province = I27
				}
				vassalize = I27
				I27 = {
					add_country_modifier = { name = eord_eordan_assistance duration = 3650 }
					add_opinion = {
						modifier = eordand_familiar_forest_ally
						who = ROOT
					}
				}
				add_country_modifier = { name = eord_salla_myna duration = 3650 }
			}
			else_if = {
				limit = {
					exists = I27
				}
				every_province = {
					limit = {
						OR = {
							area = clirypriah_area
							area = prehnryn_area
						}
						owned_by = ROOT
					}
					cede_province = I27
				}
				I27 = {
					add_country_modifier = { name = eord_eordan_assistance duration = 3650 }
					add_opinion = {
						modifier = returned_core_to_me
						who = ROOT
					}
				}
				add_country_modifier = { name = eord_salla_myna duration = 3650 }
			}
		}
	}
	
	eordandwoodelf_restore_salla_drennen = {
		major = yes
		potential = {
			tag = H21
			has_country_flag = eordand_deepwoods_ally
			NOT = { exists = I45 }
			OR = {
				NOT = { exists = I28 }
				I28 = {
					is_subject_of = ROOT
				}
				alliance_with = I28
			}
		}
		provinces_to_highlight = {
			OR = {
				area = drennen_area
				area = dennesayrn_area
			}
		}
		allow = {
			OR = {	
				num_of_owned_provinces_with = {
					area = drennen_area
					value = 1
				}
				num_of_owned_provinces_with = {
					area = dennesayrn_area
					value = 1
				}
			}
		}
		
		effect = {
			if = {
				limit = {
					NOT = { exists = I28 }
				}
				every_province = {
					limit = {
						OR = {
							area = drennen_area
							area = dennesayrn_area
						}
						owned_by = ROOT
					}
					cede_province = I28
				}
				vassalize = I28
				I28 = {
					add_country_modifier = { name = eord_eordan_assistance duration = 3650 }
					add_opinion = {
						modifier = eordand_familiar_forest_ally
						who = ROOT
					}
				}
				add_country_modifier = { name = eord_salla_drennen duration = 3650 }
			}
			else_if = {
				limit = {
					exists = I28
				}
				every_province = {
					limit = {
						OR = {
							area = drennen_area
							area = dennesayrn_area
						}
						owned_by = ROOT
					}
					cede_province = I28
				}
				I28 = {
					add_country_modifier = { name = eord_eordan_assistance duration = 3650 }
					add_opinion = {
						modifier = returned_core_to_me
						who = ROOT
					}
				}
				add_country_modifier = { name = eord_salla_drennen duration = 3650 }
			}
		}
	}
	
	eordandwoodelf_restore_salla_cenag = {
		major = yes
		potential = {
			tag = H21
			has_country_flag = eordand_deepwoods_ally
			NOT = { exists = I45 }
			OR = {
				NOT = { exists = I29 }
				I29 = {
					is_subject_of = ROOT
				}
				alliance_with = I29
			}
		}
		provinces_to_highlight = {
			OR = {
				area = ciranhofonn_area
				area = cenag_area
			}
		}
		allow = {
			OR = {	
				num_of_owned_provinces_with = {
					area = ciranhofonn_area
					value = 1
				}
				num_of_owned_provinces_with = {
					area = cenag_area
					value = 1
				}
			}
		}
		
		effect = {
			if = {
				limit = {
					NOT = { exists = I29 }
				}
				every_province = {
					limit = {
						OR = {
							area = ciranhofonn_area
							area = cenag_area
						}
						owned_by = ROOT
					}
					cede_province = I29
				}
				vassalize = I29
				I29 = {
					add_country_modifier = { name = eord_eordan_assistance duration = 3650 }
					add_opinion = {
						modifier = eordand_familiar_forest_ally
						who = ROOT
					}
				}
				add_country_modifier = { name = eord_salla_cenag duration = 3650 }
			}
			else_if = {
				limit = {
					exists = I29
				}
				every_province = {
					limit = {
						OR = {
							area = ciranhofonn_area
							area = cenag_area
						}
						owned_by = ROOT
					}
					cede_province = I29
				}
				I29 = {
					add_country_modifier = { name = eord_eordan_assistance duration = 3650 }
					add_opinion = {
						modifier = returned_core_to_me
						who = ROOT
					}
				}
				add_country_modifier = { name = eord_salla_cenag duration = 3650 }
			}
		}
	}
	
	eordandwoodelf_restore_salla_ayeth = {
		major = yes
		potential = {
			tag = H21
			has_country_flag = eordand_deepwoods_ally
			NOT = { exists = I45 }
			OR = {
				NOT = { exists = I33 }
				I33 = {
					is_subject_of = ROOT
				}
				alliance_with = I33
			}
		}
		provinces_to_highlight = {
			OR = {
				area = ayeth_area
				area = lonfarch_area
			}
		}
		allow = {
			OR = {	
				num_of_owned_provinces_with = {
					area = ayeth_area
					value = 1
				}
				num_of_owned_provinces_with = {
					area = lonfarch_area
					value = 1
				}
			}
		}
		
		effect = {
			if = {
				limit = {
					NOT = { exists = I33 }
				}
				every_province = {
					limit = {
						OR = {
							area = ayeth_area
							area = lonfarch_area
						}
						owned_by = ROOT
					}
					cede_province = I33
				}
				vassalize = I33
				I33 = {
					add_country_modifier = { name = eord_eordan_assistance duration = 3650 }
					add_opinion = {
						modifier = eordand_familiar_forest_ally
						who = ROOT
					}
				}
				add_country_modifier = { name = eord_salla_ayeth duration = 3650 }
			}
			else_if = {
				limit = {
					exists = I33
				}
				every_province = {
					limit = {
						OR = {
							area = ayeth_area
							area = lonfarch_area
						}
						owned_by = ROOT
					}
					cede_province = I33
				}
				I33 = {
					add_country_modifier = { name = eord_eordan_assistance duration = 3650 }
					add_opinion = {
						modifier = returned_core_to_me
						who = ROOT
					}
				}
				add_country_modifier = { name = eord_salla_ayeth duration = 3650 }
			}
		}
	}
	
	eordandwoodelf_restore_salla_ghul = {
		major = yes
		potential = {
			tag = H21
			has_country_flag = eordand_deepwoods_ally
			NOT = { exists = I45 }
			OR = {
				NOT = { exists = I34 }
				I34 = {
					is_subject_of = ROOT
				}
				alliance_with = I34
			}
		}
		provinces_to_highlight = {
			OR = {
				area = arsydpydru_area
				area = ghul_area
			}
		}
		allow = {
			OR = {	
				num_of_owned_provinces_with = {
					area = arsydpydru_area
					value = 1
				}
				num_of_owned_provinces_with = {
					area = ghul_area
					value = 1
				}
			}
		}
		
		effect = {
			if = {
				limit = {
					NOT = { exists = I34 }
				}
				every_province = {
					limit = {
						OR = {
							area = arsydpydru_area
							area = ghul_area
						}
						owned_by = ROOT
					}
					cede_province = I34
				}
				vassalize = I34
				I34 = {
					add_country_modifier = { name = eord_eordan_assistance duration = 3650 }
					add_opinion = {
						modifier = eordand_familiar_forest_ally
						who = ROOT
					}
				}
				add_country_modifier = { name = eord_salla_ghul duration = 3650 }
			}
			else_if = {
				limit = {
					exists = I34
				}
				every_province = {
					limit = {
						OR = {
							area = arsydpydru_area
							area = ghul_area
						}
						owned_by = ROOT
					}
					cede_province = I34
				}
				I34 = {
					add_country_modifier = { name = eord_eordan_assistance duration = 3650 }
					add_opinion = {
						modifier = returned_core_to_me
						who = ROOT
					}
				}
				add_country_modifier = { name = eord_salla_ghul duration = 3650 }
			}
		}
	}
	
	eordandwoodelf_restore_salla_ahain = {
		major = yes
		potential = {
			tag = H21
			has_country_flag = eordand_deepwoods_ally
			NOT = { exists = I45 }
			OR = {
				NOT = { exists = I32 }
				I32 = {
					is_subject_of = ROOT
				}
				alliance_with = I32
			}
		}
		provinces_to_highlight = {
			OR = {
				area = criodharka_area
				area = yfelorr_area
			}
		}
		allow = {
			OR = {	
				num_of_owned_provinces_with = {
					area = criodharka_area
					value = 1
				}
				num_of_owned_provinces_with = {
					area = yfelorr_area
					value = 1
				}
			}
		}
		
		effect = {
			if = {
				limit = {
					NOT = { exists = I32 }
				}
				every_province = {
					limit = {
						OR = {
							area = criodharka_area
							area = yfelorr_area
						}
						owned_by = ROOT
					}
					cede_province = I32
				}
				vassalize = I32
				I32 = {
					add_country_modifier = { name = eord_eordan_assistance duration = 3650 }
					add_opinion = {
						modifier = eordand_familiar_forest_ally
						who = ROOT
					}
				}
				add_country_modifier = { name = eord_salla_ahain duration = 3650 }
			}
			else_if = {
				limit = {
					exists = I32
				}
				every_province = {
					limit = {
						OR = {
							area = criodharka_area
							area = yfelorr_area
						}
						owned_by = ROOT
					}
					cede_province = I32
				}
				I32 = {
					add_country_modifier = { name = eord_eordan_assistance duration = 3650 }
					add_opinion = {
						modifier = returned_core_to_me
						who = ROOT
					}
				}
				add_country_modifier = { name = eord_salla_ahain duration = 3650 }
			}
		}
	}
	
	eordandwoodelf_restore_salla_fealgarn = {
		major = yes
		potential = {
			tag = H21
			has_country_flag = eordand_deepwoods_ally
			NOT = { exists = I45 }
			OR = {
				NOT = { exists = I30 }
				I30 = {
					is_subject_of = ROOT
				}
				alliance_with = I30
			}
		}
		provinces_to_highlight = {
			OR = {
				area = fealmyraeth_area
				area = coryllann_area
			}
		}
		allow = {
			OR = {	
				num_of_owned_provinces_with = {
					area = fealmyraeth_area
					value = 1
				}
				num_of_owned_provinces_with = {
					area = coryllann_area
					value = 1
				}
			}
		}
		
		effect = {
			if = {
				limit = {
					NOT = { exists = I30 }
				}
				every_province = {
					limit = {
						OR = {
							area = fealmyraeth_area
							area = coryllann_area
						}
						owned_by = ROOT
					}
					cede_province = I30
				}
				vassalize = I30
				I30 = {
					add_country_modifier = { name = eord_eordan_assistance duration = 3650 }
					add_opinion = {
						modifier = eordand_familiar_forest_ally
						who = ROOT
					}
				}
				add_country_modifier = { name = eord_salla_fealgarn duration = 3650 }
			}
			else_if = {
				limit = {
					exists = I30
				}
				every_province = {
					limit = {
						OR = {
							area = fealmyraeth_area
							area = coryllann_area
						}
						owned_by = ROOT
					}
					cede_province = I30
				}
				I30 = {
					add_country_modifier = { name = eord_eordan_assistance duration = 3650 }
					add_opinion = {
						modifier = eordand_familiar_forest_ally
						who = ROOT
					}
				}
				add_country_modifier = { name = eord_salla_fealgarn duration = 3650 }
			}
		}
	}
	
	eordandwoodelf_restore_salla_scotha = {
		major = yes
		potential = {
			tag = H21
			has_country_flag = eordand_deepwoods_ally
			NOT = { exists = I45 }
			OR = {
				NOT = { exists = I31 }
				I31 = {
					is_subject_of = ROOT
				}
				alliance_with = I31
			}
		}
		provinces_to_highlight = {
			OR = {
				area = scothaear_area
				area = scothalar_area
			}
		}
		allow = {
			OR = {	
				num_of_owned_provinces_with = {
					area = scothalar_area
					value = 1
				}
				num_of_owned_provinces_with = {
					area = scothaear_area
					value = 1
				}
			}
		}
		
		effect = {
			if = {
				limit = {
					NOT = { exists = I31 }
				}
				every_province = {
					limit = {
						OR = {
							area = scothalar_area
							area = scothaear_area
						}
						owned_by = ROOT
					}
					cede_province = I31
				}
				vassalize = I31
				I31 = {
					add_country_modifier = { name = eord_eordan_assistance duration = 3650 }
					add_opinion = {
						modifier = eordand_familiar_forest_ally
						who = ROOT
					}
				}
				add_country_modifier = { name = eord_salla_scotha duration = 3650 }
			}
			else_if = {
				limit = {
					exists = I31
				}
				every_province = {
					limit = {
						OR = {
							area = fealmyraeth_area
							area = coryllann_area
						}
						owned_by = ROOT
					}
					cede_province = I31
				}
				I31 = {
					add_country_modifier = { name = eord_eordan_assistance duration = 3650 }
					add_opinion = {
						modifier = eordand_familiar_forest_ally
						who = ROOT
					}
				}
				add_country_modifier = { name = eord_salla_scotha duration = 3650 }
			}
		}
	}
}