namespace = gnomish_tolerance_events

# Event organizer for the gnomish tolerance events - should be a huge improvement to performance - having 1 overall check for having the minority instead of one for EACH new event that gets added
country_event = {
	id = gnomish_tolerance_events.0
	title = race_setup_events.1.d
	desc = race_setup_events.1.d
	picture = BORDER_TENSION_eventPicture

	hidden = yes
	is_triggered_only = yes

	trigger = {
		NOT = { culture_group = gnomish }
		any_owned_province = {
			has_gnomish_minority_trigger = yes
		}
	}
	
	mean_time_to_happen = {
		days = 1
		modifier = {
			factor = 10
			has_country_modifier = racial_focus_gnomish
		}
	}

	option = {
		random_list = {
			# Gnomish innovations
			1 = {
				trigger = {
					any_owned_province = {
						has_gnomish_minority_trigger = yes
						NOT = { has_province_modifier = gnomish_exploiting_inventions_prov }
						NOT = { has_province_modifier = gnomish_respect_of_innovations_prov }
						NOT = { has_province_modifier = gnomish_stopped_innovations_prov }	
					}
				}
				modifier = {
					factor = 1.5
					medium_tolerance_gnomish_race_trigger = yes
				}
				modifier = {
					factor = 2
					high_tolerance_gnomish_race_trigger = yes
				}
				country_event = {
					id = gnomish_tolerance_events.1
				}
			}
			# Harassment of gnomes
			1 = {
				trigger = {
					NOT = { culture_group = gnomish }
					any_owned_province = {
						NOT = { has_province_modifier = gnomes_treated_poorly_prov }
						NOT = { has_province_modifier = gnomes_protected_from_danger_prov }
						has_gnomish_minority_trigger = yes
					}
				}
				modifier = {
					factor = 2
					low_tolerance_gnomish_race_trigger = yes
				}
				country_event = {
					id = gnomish_tolerance_events.2
				}
			}
			# Gnomish ingenuity
			1 = {
				trigger = {
					any_owned_province = {
						has_gnomish_minority_trigger = yes
						NOT = { has_province_modifier = gnomish_respected_intellectuals_prov }
						NOT = { has_province_modifier = gnomish_disrespected_intellectuals_prov }
					}
				}
				modifier = {
					factor = 1.5
					medium_tolerance_gnomish_race_trigger = yes
				}
				modifier = {
					factor = 2
					high_tolerance_gnomish_race_trigger = yes
				}
				modifier = {
					factor = 1.1
					innovativeness = 5
				}
				modifier = {
					factor = 1.1
					innovativeness = 10
				}
				modifier = {
					factor = 2
					innovativeness = 25
				}
				modifier = {
					factor = 2
					innovativeness = 50
				}
				country_event = {
					id = gnomish_tolerance_events.3
				}
			}
			# 
			1 = {
				trigger = {
					has_estate = estate_artificers
				}
				modifier = {
					factor = 2
					NOT = { 
						estate_influence = {
							estate = estate_artificers
							influence = 40
						}
					}
				}
				modifier = {
					factor = 2
					NOT = { 
						estate_influence = {
							estate = estate_artificers
							influence = 30
						}
					}
				}
				modifier = {
					factor = 2
					any_owned_province = {
						OR = {
							has_large_gnomish_minority_trigger = yes
							has_gnomish_majority_trigger = yes
						}
					}
				}
				country_event = {
					id = gnomish_tolerance_events.4
				}
			}
			# Gnomish advisor
			1 = {
				modifier = {
					factor = 1.5
					medium_tolerance_gnomish_race_trigger = yes
				}
				modifier = {
					factor = 2
					high_tolerance_gnomish_race_trigger = yes
				}
				country_event = {
					id = gnomish_tolerance_events.5
				}
			}
			# Public lectures
			1 = {
				trigger = {
					any_owned_province = {
						has_gnomish_minority_trigger = yes
						NOT = { has_province_modifier = gnomes_public_lectures_happening }
						NOT = { has_province_modifier = gnomes_public_lectures_discouraged }
					}
				}
				modifier = {
					factor = 1.2
					medium_tolerance_gnomish_race_trigger = yes
				}
				modifier = {
					factor = 1.5
					high_tolerance_gnomish_race_trigger = yes
				}
				modifier = {
					factor = 1.2
					stability = 1
				}
				modifier = {
					factor = 1.1
					innovativeness = 25
				}
				modifier = {
					factor = 1.3
					innovativeness = 50
				}
				modifier = {
					factor = 2
					any_owned_province = {
						has_building = university
						has_gnomish_minority_trigger = yes
						NOT = { has_province_modifier = gnomes_public_lectures_happening }
						NOT = { has_province_modifier = gnomes_public_lectures_discouraged }
					}
				}
				country_event = {
					id = gnomish_tolerance_events.6
				}
			}
			# Play insults ruler
			1 = {
				modifier = {
					factor = 1.5
					low_tolerance_gnomish_race_trigger = yes
				}
				modifier = {
					factor = 2
					NOT = { prestige = 0 }
				}
				modifier = {
					factor = 1.5
					NOT = { legitimacy = 90 }
				}
				modifier = {
					factor = 1.5
					NOT = { legitimacy = 75 }
				}
				country_event = {
					id = gnomish_tolerance_events.7
				}
			}
			# Gnomish provocateurs
			1 = {
				trigger = {
					NOT = { has_country_modifier = gnomish_provocateurs }
				}
				modifier = {
					factor = 2
					low_tolerance_gnomish_race_trigger = yes
				}
				modifier = {
					factor = 0.1
					high_tolerance_gnomish_race_trigger = yes
				}
				modifier = {
					factor = 2
					NOT = { stability = 1 }
				}
				country_event = {
					id = gnomish_tolerance_events.8
				}
			}
		}
	}
}

# Gnomish innovations
country_event = {
	id = gnomish_tolerance_events.1
	title = gnomish_tolerance_events.1.t
	desc = gnomish_tolerance_events.1.d
	picture = TRADEGOODS_eventPicture
	
	is_triggered_only = yes
	
	immediate = {
		hidden_effect = {
			random_owned_province = {
				limit = {
					NOT = { has_province_modifier = gnomish_exploiting_inventions_prov }
					NOT = { has_province_modifier = gnomish_respect_of_innovations_prov }
					NOT = { has_province_modifier = gnomish_stopped_innovations_prov }
					has_gnomish_minority_trigger = yes
				}
				save_event_target_as = innovations_gnomish_province
			}
			random_owned_province = {
				limit = {
					NOT = { has_province_modifier = gnomish_exploiting_inventions_prov }
					NOT = { has_province_modifier = gnomish_respect_of_innovations_prov }
					NOT = { has_province_modifier = gnomish_stopped_innovations_prov }
					has_gnomish_minority_trigger = yes
					OR = {
						is_in_capital_area = yes
						development = 10
					}
				}
				save_event_target_as = innovations_gnomish_province
			}
			random_owned_province = {
				limit = {
					NOT = { has_province_modifier = gnomish_exploiting_inventions_prov }
					NOT = { has_province_modifier = gnomish_respect_of_innovations_prov }
					NOT = { has_province_modifier = gnomish_stopped_innovations_prov }
					has_gnomish_minority_trigger = yes
					is_in_capital_area = yes
					development = 10
				}
				save_event_target_as = innovations_gnomish_province
			}
		}
	}
	
	option = {	# Let's exploit this knowledge
		name = gnomish_tolerance_events.1.a
		ai_chance = {
			factor = 50
		}
		add_adm_power = 10
		add_dip_power = 10
		event_target:innovations_gnomish_province = {
			area = {
				limit = {
					NOT = { has_province_modifier = gnomish_exploiting_inventions_prov }
					NOT = { has_province_modifier = gnomish_respect_of_innovations_prov }
					NOT = { has_province_modifier = gnomish_stopped_innovations_prov }
					owned_by = ROOT
					OR = {
						has_gnomish_minority_trigger = yes
						culture_group = gnomish
					}
				}
				add_province_modifier = {
					name = gnomish_exploiting_inventions_prov
					duration = 1825
				}
			}
		}
	}
	
	option = {	# Respect their wishes
		name = gnomish_tolerance_events.1.b
		ai_chance = {
			factor = 50
			modifier = {
				factor = 0.5
				wants_to_maintain_tolerance_gnomish = yes
			}
			modifier = {
				factor = 0.1
				wants_to_decrease_tolerance_gnomish = yes
			}
		}
		small_increase_of_gnomish_tolerance_effect = yes
		event_target:innovations_gnomish_province = {
			area = {
				limit = {
					NOT = { has_province_modifier = gnomish_exploiting_inventions_prov }
					NOT = { has_province_modifier = gnomish_respect_of_innovations_prov }
					NOT = { has_province_modifier = gnomish_stopped_innovations_prov }
					owned_by = ROOT
					OR = {
						has_gnomish_minority_trigger = yes
						culture_group = gnomish
					}
				}
				add_province_modifier = {
					name = gnomish_respect_of_innovations_prov
					duration = 1825
				}
			}
		}
	}
	
	option = {	# This is unlawful now, confiscate their machines
		name = gnomish_tolerance_events.1.c
		ai_chance = {
			factor = 50
			modifier = {
				factor = 0.5
				wants_to_maintain_tolerance_gnomish = yes
			}
			modifier = {
				factor = 0.1
				wants_to_increase_tolerance_gnomish = yes
			}
		}
		add_prestige = 5
		add_mil_power = -10
		add_dip_power = -10
		if = {
			limit = {
				max_manpower = 20
			}
			add_manpower = -1
		}
		if = {
			limit = {
				NOT = { max_manpower = 20 }
			}
			add_yearly_manpower = -0.5
		}
		add_years_of_income = 0.4
		small_decrease_of_gnomish_tolerance_effect = yes
		event_target:innovations_gnomish_province = {
			add_province_modifier = {
				name = gnomish_stopped_innovations_prov
				duration = 1825
			}
		}
	}
	
	option = {	# This is useful
		name = gnomish_tolerance_events.1.e
		trigger = {
			OR = {
				ruler_has_personality = scholar_personality
				ruler_has_personality = free_thinker_personality
			}
		}
						highlight = yes
		ai_chance = {
			factor = 100
			modifier = {
				factor = 0.5
				wants_to_maintain_tolerance_gnomish = yes
			}
			modifier = {
				factor = 0.1
				wants_to_decrease_tolerance_gnomish = yes
			}
		}
		add_adm_power = 10
		add_dip_power = 10
		small_increase_of_gnomish_tolerance_effect = yes
		event_target:innovations_gnomish_province = {
			area = {
				limit = {
					NOT = { has_province_modifier = gnomish_exploiting_inventions_prov }
					NOT = { has_province_modifier = gnomish_respect_of_innovations_prov }
					NOT = { has_province_modifier = gnomish_stopped_innovations_prov }
					owned_by = ROOT
					OR = {
						has_gnomish_minority_trigger = yes
						culture_group = gnomish
					}
				}
				add_province_modifier = {
					name = gnomish_respect_of_innovations_prov
					duration = 3650
				}
			}
		}
	}
}

# Harassment of Gnomes
country_event = {
	id = gnomish_tolerance_events.2
	title = gnomish_tolerance_events.2.t
	desc = gnomish_tolerance_events.2.d
	picture = BORDER_TENSION_eventPicture
	
	is_triggered_only = yes
	
	immediate = {
		hidden_effect = {
			random_owned_province = {
				limit = {
					NOT = { has_province_modifier = gnomes_treated_poorly_prov }
					NOT = { has_province_modifier = gnomes_protected_from_danger_prov }
					has_gnomish_minority_trigger = yes
				}
				save_event_target_as = gnomish_treated_poorly_province
			}
			random_owned_province = {
				limit = {
					NOT = { has_province_modifier = gnomes_treated_poorly_prov }
					NOT = { has_province_modifier = gnomes_protected_from_danger_prov }
					has_gnomish_minority_trigger = yes
					unrest = 1
				}
				save_event_target_as = gnomish_treated_poorly_province
			}
			random_owned_province = {
				limit = {
					NOT = { has_province_modifier = gnomes_treated_poorly_prov }
					NOT = { has_province_modifier = gnomes_protected_from_danger_prov }
					has_gnomish_minority_trigger = yes
					unrest = 3
				}
				save_event_target_as = gnomish_treated_poorly_province
			}
			random_owned_province = {
				limit = {
					NOT = { has_province_modifier = gnomes_treated_poorly_prov }
					NOT = { has_province_modifier = gnomes_protected_from_danger_prov }
					has_gnomish_minority_trigger = yes
					unrest = 5
				}
				save_event_target_as = gnomish_treated_poorly_province
			}
		}
	}
	
	option = {	# Ignore the issue
		name = gnomish_tolerance_events.2.a
		ai_chance = {
			factor = 50
		}
		add_prestige = -5
		add_corruption = 1
		event_target:gnomish_treated_poorly_province = {
			add_province_modifier = {
				name = gnomes_treated_poorly_prov
				duration = 1825
			}
		}
	}
	
	option = {	# Something could be done about this
		name = gnomish_tolerance_events.2.b
		ai_chance = {
			factor = 50
			modifier = {
				factor = 0.5
				wants_to_maintain_tolerance_gnomish = yes
			}
			modifier = {
				factor = 0.1
				wants_to_decrease_tolerance_gnomish = yes
			}
		}
		add_prestige = 5
		add_mil_power = -20
		small_increase_of_gnomish_tolerance_effect = yes
		event_target:gnomish_treated_poorly_province = {
			add_province_modifier = {
				name = gnomes_protected_from_danger_prov
				duration = 1825
			}
		}
	}
	
	option = {	# This seem just
		name = gnomish_tolerance_events.2.c
		ai_chance = {
			factor = 50
			modifier = {
				factor = 0.5
				wants_to_maintain_tolerance_gnomish = yes
			}
			modifier = {
				factor = 0.1
				wants_to_increase_tolerance_gnomish = yes
			}
		}
		add_prestige = -5
		increase_legitimacy_small_effect = yes
		small_decrease_of_gnomish_tolerance_effect = yes
		event_target:gnomish_treated_poorly_province = {
			add_province_modifier = {
				name = gnomes_treated_poorly_prov
				duration = 3650
			}
		}
	}
	
	option = {	# Those poor souls, we need to help them!
		name = gnomish_tolerance_events.2.e
		trigger = { ruler_has_personality = kind_hearted_personality }
				highlight = yes
		ai_chance = {
			factor = 100
			modifier = {
				factor = 0.5
				wants_to_maintain_tolerance_gnomish = yes
			}
			modifier = {
				factor = 0.1
				wants_to_decrease_tolerance_gnomish = yes
			}
		}
		add_prestige = 5
		add_dip_power = -10
		add_mil_power = -10
		small_increase_of_gnomish_tolerance_effect = yes
		event_target:gnomish_treated_poorly_province = {
			add_province_modifier = {
				name = gnomes_protected_from_danger_prov
				duration = 3650
			}
		}
	}
	
	option = {	# Make an example out of the troublemakers
		name = gnomish_tolerance_events.2.f
		trigger = { ruler_has_personality = cruel_personality }
				highlight = yes
		ai_chance = {
			factor = 100
		}
		add_mil_power = -10
		if = {
			limit = {
				corruption = 0.01
			}
			add_corruption = -0.5
		}
		medium_increase_of_gnomish_tolerance_effect = yes
		event_target:gnomish_treated_poorly_province = {
			add_unrest = 0.5
		}
	}
	
	option = {	# Restore order immediately
		name = gnomish_tolerance_events.2.g
		trigger = { ruler_has_personality = strict_personality }
		highlight = yes
		ai_chance = {
			factor = 100
		}
		small_increase_of_gnomish_tolerance_effect = yes
		increase_legitimacy_small_effect = yes
		add_mil_power = -15
		if = {
			limit = {
				corruption = 0.01
			}
			add_corruption = -0.75
		}
		event_target:gnomish_treated_poorly_province = {
			add_unrest = -1
		}
	}
}

# Gnomish ingenuity
country_event = {
	id = gnomish_tolerance_events.3
	title = gnomish_tolerance_events.3.t
	desc = gnomish_tolerance_events.3.d
	picture = INVENTION_eventPicture
		
	immediate = {
		hidden_effect = {
			random_owned_province = {
				limit = {
					NOT = { has_province_modifier = gnomish_respected_intellectuals_prov }
					NOT = { has_province_modifier = gnomish_disrespected_intellectuals_prov }
					has_gnomish_minority_trigger = yes
					development = 10
				}
				save_event_target_as = genius_gnomish_province
			}
			random_owned_province = {
				limit = {
					NOT = { has_province_modifier = gnomish_respected_intellectuals_prov }
					NOT = { has_province_modifier = gnomish_disrespected_intellectuals_prov }
					has_gnomish_minority_trigger = yes
					development = 10
					is_overseas = no
				}
				save_event_target_as = genius_gnomish_province
			}
			random_owned_province = {
				limit = {
					NOT = { has_province_modifier = gnomish_respected_intellectuals_prov }
					NOT = { has_province_modifier = gnomish_disrespected_intellectuals_prov }
					has_gnomish_minority_trigger = yes
					is_in_capital_area = yes
					development = 10
					is_overseas = no
				}
				save_event_target_as = genius_gnomish_province
			}
		}
	}
		
	is_triggered_only = yes
	
	option = {	# Give him a token reward
		name = gnomish_tolerance_events.3.a
		ai_chance = {
			factor = 50
			modifier = {
				factor = 0.8
				NOT = { years_of_income = 0.15 }
			}
		}
		add_adm_power = 20
		add_years_of_income = -0.15
		event_target:genius_gnomish_province = {
			add_province_modifier = {
				name = gnomish_respected_intellectuals_prov
				duration = 3650
			}
		}
	}
	
	option = {	# Award his ingenuity
		name = gnomish_tolerance_events.3.b
		ai_chance = {
			factor = 50
			modifier = {
				factor = 0.8
				NOT = { years_of_income = 0.3 }
			}
			modifier = {
				factor = 0.5
				wants_to_maintain_tolerance_gnomish = yes
			}
			modifier = {
				factor = 0.1
				wants_to_decrease_tolerance_gnomish = yes
			}
		}
		add_adm_power = 30
		change_innovativeness = 1
		add_years_of_income = -0.3
		small_increase_of_gnomish_tolerance_effect = yes
		event_target:genius_gnomish_province = {
			add_province_modifier = {
				name = gnomish_respected_intellectuals_prov
				duration = 3650
			}
		}
	}
	
	option = {	# He probably stole this from someone...
		name = gnomish_tolerance_events.3.c
		ai_chance = {
			factor = 50
			modifier = {
				factor = 0.5
				wants_to_maintain_tolerance_gnomish = yes
			}
			modifier = {
				factor = 0.1
				wants_to_increase_tolerance_gnomish = yes
			}
		}
		add_prestige = 5
		small_decrease_of_gnomish_tolerance_effect = yes
		event_target:genius_gnomish_province = {
			add_province_modifier = {
				name = gnomish_disrespected_intellectuals_prov
				duration = 3650
			}
		}
	}
	
	option = {	# I'll not waste my money on this fool
		name = gnomish_tolerance_events.3.e
		trigger = { ruler_has_personality = greedy_personality }
				highlight = yes
		ai_chance = {
			factor = 100
			modifier = {
				factor = 0.5
				wants_to_maintain_tolerance_gnomish = yes
			}
			modifier = {
				factor = 0.1
				wants_to_increase_tolerance_gnomish = yes
			}
		}
		add_prestige = -5
		small_decrease_of_gnomish_tolerance_effect = yes
		event_target:genius_gnomish_province = {
			add_province_modifier = {
				name = gnomish_disrespected_intellectuals_prov
				duration = 3650
			}
		}
	}
	
	option = {	# Let us discuss the price
		name = gnomish_tolerance_events.3.f
		trigger = { ruler_has_personality = fierce_negotiator_personality }
				highlight = yes
		ai_chance = {
			factor = 100
			modifier = {
				factor = 0.8
				NOT = { years_of_income = 0.075 }
			}
		}
		add_adm_power = 25
		add_years_of_income = -0.075
	}
}

# Gnomes dominating artificer circles
country_event = {
	id = gnomish_tolerance_events.4
	title = gnomish_tolerance_events.4.t
	desc = gnomish_tolerance_events.4.d
	picture = INVENTION_eventPicture
	
	is_triggered_only = yes
	
	# Reward them for their ingenuity
	option = {
		name = gnomish_tolerance_events.4.a
		ai_chance = {
			factor = 50
			modifier = {
				factor = 0.5
				wants_to_maintain_tolerance_gnomish = yes
			}
			modifier = {
				factor = 0.1
				wants_to_decrease_tolerance_gnomish = yes
			}
		}
		small_increase_of_gnomish_tolerance_effect = yes
		reduce_estate_artificers_loyalty_effect = yes
		add_estate_influence_modifier = {
			estate = estate_artificers
			desc = gnomish_artificers_dominating_support_gnomes_influence
			influence = -10
			duration = 3650
		}
	}
	
	# Don't interfere
	option = {
		name = gnomish_tolerance_events.4.b
		ai_chance = {
			factor = 50
		}
		reduce_estate_artificers_loyalty_effect = yes
	}
	
	# Secretly prefer our own artificers
	option = {
		name = gnomish_tolerance_events.4.c
		ai_chance = {
			factor = 50
			modifier = {
				factor = 0.5
				wants_to_maintain_tolerance_gnomish = yes
			}
			modifier = {
				factor = 0.1
				wants_to_increase_tolerance_gnomish = yes
			}
		}
		add_prestige = 5
		small_decrease_of_gnomish_tolerance_effect = yes
		add_estate_influence_modifier = {
			estate = estate_artificers
			desc = gnomish_artificers_dominating_support_own_influence
			influence = 10
			duration = 3650
		}
	}
}

# Gnomish advisor
country_event = {
	id = gnomish_tolerance_events.5
	title = gnomish_tolerance_events.5.t
	desc = gnomish_tolerance_events.5.d
	picture = ADVISOR_eventPicture
	
	is_triggered_only = yes

	mean_time_to_happen = {
		days = 1
		modifier = {
			factor = 1.5
			medium_tolerance_gnomish_race_trigger = yes
		}
		modifier = {
			factor = 2
			high_tolerance_gnomish_race_trigger = yes
		}
	}

	# If you have a gnomish culture province, that's the one the advisor comes from
	immediate = {
		hidden_effect = {
			if = {
				limit = {
					any_owned_province = {
						culture_group = gnomish
					}
				}
				random_owned_province = {
					limit = { culture_group = gnomish }
					save_event_target_as = gnomish_advisor_culture_province
				}
				set_country_flag = gnomish_advisor_culture_set
			}
		}
	}

	# Recruit the advisor
	option = {
		name = gnomish_tolerance_events.5.a
		ai_chance = {
			factor = 50
			modifier = {
				factor = 0.5
				wants_to_maintain_tolerance_gnomish = yes
			}
			modifier = {
				factor = 0.1
				wants_to_decrease_tolerance_gnomish = yes
			}
		}
		small_increase_of_gnomish_tolerance_effect = yes
		if = {
			limit = { has_country_flag = gnomish_advisor_culture_set }
			if = {
				limit = { monthly_income = 50 }
				random_list = {
					1 = {
						define_advisor = {
							type = natural_scientist
							culture = event_target:gnomish_advisor_culture_province
							religion = event_target:gnomish_advisor_culture_province
							skill = 3
							
							discount = yes
						}
					}
					1 = {
						define_advisor = {
							type = philosopher
							culture = event_target:gnomish_advisor_culture_province
							religion = event_target:gnomish_advisor_culture_province
							skill = 3
							
							discount = yes
						}
					}
				}
			}
			else_if = {
				limit = { monthly_income = 25 }
				random_list = {
					1 = {
						define_advisor = {
							type = natural_scientist
							culture = event_target:gnomish_advisor_culture_province
							religion = event_target:gnomish_advisor_culture_province
							skill = 2
							
							discount = yes
						}
					}
					1 = {
						define_advisor = {
							type = philosopher
							culture = event_target:gnomish_advisor_culture_province
							religion = event_target:gnomish_advisor_culture_province
							skill = 2
							
							discount = yes
						}
					}
				}
			}
			else = {
				random_list = {
					1 = {
						define_advisor = {
							type = natural_scientist
							culture = event_target:gnomish_advisor_culture_province
							religion = event_target:gnomish_advisor_culture_province
							skill = 1
							
							discount = yes
						}
					}
					1 = {
						define_advisor = {
							type = philosopher
							culture = event_target:gnomish_advisor_culture_province
							religion = event_target:gnomish_advisor_culture_province
							skill = 1
							
							discount = yes
						}
					}
				}
			}
		}
		else_if = {
			limit = { 
				capital_scope = {
					OR = {
						region = lencenor_region
						area = iochand_area
					}
				} 
			}
			if = {
				limit = { monthly_income = 50 }
				random_list = {
					1 = {
						define_advisor = {
							type = natural_scientist
							culture = creek_gnome
							skill = 3
							
							discount = yes
						}
					}
					1 = {
						define_advisor = {
							type = philosopher
							culture = creek_gnome
							skill = 3
							
							discount = yes
						}
					}
				}
			}
			else_if = {
				limit = { monthly_income = 25 }
				random_list = {
					1 = {
						define_advisor = {
							type = natural_scientist
							culture = creek_gnome
							skill = 2
							
							discount = yes
						}
					}
					1 = {
						define_advisor = {
							type = philosopher
							culture = creek_gnome
							skill = 2
							discount = yes
						}
					}
				}
			}
			else = {
				random_list = {
					1 = {
						define_advisor = {
							type = natural_scientist
							culture = creek_gnome
							skill = 1
							
							discount = yes
						}
					}
					1 = {
						define_advisor = {
							type = philosopher
							culture = creek_gnome
							skill = 1
							discount = yes
						}
					}
				}
			}
		}
		else_if = {
			limit = { 
				capital_scope = {
					OR = {
						region = west_dameshead_region
						region = damescrown_region
						region = east_dameshead_region
						region = esmaria_region
						region = the_borders_region
						region = businor_region
					}
				} 
			}
			if = {
				limit = { monthly_income = 50 }
				random_list = {
					1 = {
						define_advisor = {
							type = natural_scientist
							culture = imperial_gnome
							skill = 3
							
							discount = yes
						}
					}
					1 = {
						define_advisor = {
							type = philosopher
							culture = imperial_gnome
							skill = 3
							
							discount = yes
						}
					}
				}
			}
			else_if = {
				limit = { monthly_income = 25 }
				random_list = {
					1 = {
						define_advisor = {
							type = natural_scientist
							culture = imperial_gnome
							skill = 2
							
							discount = yes
						}
					}
					1 = {
						define_advisor = {
							type = philosopher
							culture = imperial_gnome
							skill = 2
							
							discount = yes
						}
					}
				}
			}
			else = {
				random_list = {
					1 = {
						define_advisor = {
							type = natural_scientist
							culture = imperial_gnome
							skill = 1
							
							discount = yes
						}
					}
					1 = {
						define_advisor = {
							type = philosopher
							culture = imperial_gnome
							skill = 1
							
							discount = yes
						}
					}
				}
			}
		}
		else = {
			if = {
				limit = { monthly_income = 50 }
				random_list = {
					1 = {
						define_advisor = {
							type = natural_scientist
							culture = cliff_gnome
							skill = 3
							
							discount = yes
						}
					}
					1 = {
						define_advisor = {
							type = philosopher
							culture = cliff_gnome
							skill = 3
							
							discount = yes
						}
					}
				}
			}
			else_if = {
				limit = { monthly_income = 25 }
				random_list = {
					1 = {
						define_advisor = {
							type = natural_scientist
							culture = cliff_gnome
							skill = 2
							
							discount = yes
						}
					}
					1 = {
						define_advisor = {
							type = philosopher
							culture = cliff_gnome
							skill = 2
							
							discount = yes
						}
					}
				}
			}
			else = {
				random_list = {
					1 = {
						define_advisor = {
							type = natural_scientist
							culture = cliff_gnome
							skill = 1
							
							discount = yes
						}
					}
					1 = {
						define_advisor = {
							type = philosopher
							culture = cliff_gnome
							skill = 1
							
							discount = yes
						}
					}
				}
			}
		}
	}

	# A true exemplar of their race
	option = {
		name = gnomish_tolerance_events.5.b
		ai_chance = {
			factor = 50
			modifier = {
				factor = 2
				wants_to_increase_tolerance_gnomish = yes
			}
		}
		medium_increase_of_gnomish_tolerance_effect = yes
	}

	# We dun give a shit
	option = {
		name = gnomish_tolerance_events.5.c
		ai_chance = {
			factor = 50
			modifier = {
				factor = 2
				wants_to_decrease_tolerance_gnomish = yes
			}
		}
		small_decrease_of_gnomish_tolerance_effect = yes
	}

	after = {
		clr_country_flag = gnomish_advisor_culture_set
	}
}

# Public Lectures
country_event = {
	id = gnomish_tolerance_events.6
	title = gnomish_tolerance_events.6.t
	desc = gnomish_tolerance_events.6.d
	picture = STREET_SPEECH_eventPicture
	GOTO = gnomish_public_lectures_province

	is_triggered_only = yes

	immediate = {
		hidden_effect = {
			random_owned_province = {
				limit = {
					has_gnomish_minority_trigger = yes
					NOT = { has_province_modifier = gnomes_public_lectures_happening }
					NOT = { has_province_modifier = gnomes_public_lectures_discouraged }		
				}
				save_event_target_as = gnomish_public_lectures_province
			}
			random_owned_province = {
				limit = {
					has_gnomish_minority_trigger = yes
					NOT = { has_province_modifier = gnomes_public_lectures_happening }
					NOT = { has_province_modifier = gnomes_public_lectures_discouraged }
					development = 12		
				}
				save_event_target_as = gnomish_public_lectures_province
			}
			random_owned_province = {
				limit = {
					has_gnomish_minority_trigger = yes
					NOT = { has_province_modifier = gnomes_public_lectures_happening }
					NOT = { has_province_modifier = gnomes_public_lectures_discouraged }
					development = 12

				}
				save_event_target_as = gnomish_public_lectures_province
			}
			random_owned_province = {
				limit = {
					has_gnomish_minority_trigger = yes
					NOT = { has_province_modifier = gnomes_public_lectures_happening }
					NOT = { has_province_modifier = gnomes_public_lectures_discouraged }
					has_building = university
				}
				save_event_target_as = gnomish_public_lectures_province
			}
			random_owned_province = {
				limit = {
					has_gnomish_minority_trigger = yes
					NOT = { has_province_modifier = gnomes_public_lectures_happening }
					NOT = { has_province_modifier = gnomes_public_lectures_discouraged }
					has_building = university
					development = 12
				}
				save_event_target_as = gnomish_public_lectures_province
			}
		}
	}
	
	# A great way to get our citizens thinking!
	option = {
		name = gnomish_tolerance_events.6.a
		ai_chance = {
			factor = 50
			modifier = {
				factor = 0.5
				wants_to_decrease_tolerance_gnomish = yes
			}
		}
		small_increase_of_gnomish_tolerance_effect = yes
		add_prestige = -10
		if = { 
			limit = { has_dlc = "Rule Britannia" }
			change_innovativeness = 1
		}
		else = {
			add_adm_power = 20
		}
		event_target:gnomish_public_lectures_province = {
			add_province_modifier = {
				name = gnomes_public_lectures_happening
				duration = 3650
			}
		}
	}
	# Let's keep theory and philosophy to our own circles
	option = {
		name = gnomish_tolerance_events.6.b
		ai_chance = {
			factor = 50
		}
		add_prestige = 5
		event_target:gnomish_public_lectures_province = {
			add_province_modifier = {
				name = gnomes_public_lectures_happening
				duration = 1825
			}
		}
	}
	# Shut down the meeting space!
	option = {
		name = gnomish_tolerance_events.6.c
		ai_chance = {
			factor = 50
			modifier = {
				factor = 0.5
				wants_to_increase_tolerance_gnomish = yes
			}
		}
		add_mil_power = -20
		small_decrease_of_gnomish_tolerance_effect = yes
		event_target:gnomish_public_lectures_province = {
			add_province_modifier = {
				name = gnomes_public_lectures_discouraged
				duration = 1825
			}
		}
	}
}

# Play insults ruler
country_event = {
	id = gnomish_tolerance_events.7
	title = gnomish_tolerance_events.7.t
	desc = gnomish_tolerance_events.7.d
	picture = CULTURE_eventPicture

	is_triggered_only = yes
	
	# That's hilarious! Hire them!
	option = {
		name = gnomish_tolerance_events.7.a
		ai_chance = {
			factor = 50
			modifier = {
				factor = 0.5
				wants_to_decrease_tolerance_gnomish = yes
			}
			modifier = {
				factor = 0.5
				NOT = { years_of_income = 0.33 }
			}
		}
		medium_increase_of_gnomish_tolerance_effect = yes
		reduce_legitimacy_small_effect = yes
		add_years_of_income = -0.33
	}
	# Do I really sound like that?
	option = {
		name = gnomish_tolerance_events.7.b
		ai_chance = {
			factor = 50
		}
		add_prestige = -10
		reduce_legitimacy_small_effect = yes
	}
	# We'll see who's laughing when they hang!
	option = {
		name = gnomish_tolerance_events.7.c
		ai_chance = {
			factor = 50
			modifier = {
				factor = 0.5
				wants_to_increase_tolerance_gnomish = yes
			}
		}
		add_prestige = -15
		medium_decrease_of_gnomish_tolerance_effect = yes
	}
}

# Gnomish Provocateurs
country_event = {
	id = gnomish_tolerance_events.8
	title = gnomish_tolerance_events.8.t
	desc = gnomish_tolerance_events.8.d
	picture = SPY_eventPicture

	is_triggered_only = yes
		
	# Comply to their way of thinking
	option = {
		name = gnomish_tolerance_events.8.a
		ai_chance = {
			factor = 50
			modifier = {
				factor = 0.5
				wants_to_decrease_tolerance_gnomish = yes
			}
		}
		small_increase_of_gnomish_tolerance_effect = yes
		add_prestige = -10

		add_country_modifier = { 
			name = gnomish_provocateurs
			duration = 1825
		}
	}
	# Ignore it! It's all talk anyway
	option = {
		name = gnomish_tolerance_events.8.b
		ai_chance = {
			factor = 50
		}
		add_prestige = -5
		reduce_legitimacy_medium_effect = yes

		add_country_modifier = { 
			name = gnomish_provocateurs
			duration = 3650
		}
	}
	# Hunt down these gnomes and their allies!
	option = {
		name = gnomish_tolerance_events.8.c
		ai_chance = {
			factor = 50
			modifier = {
				factor = 0.5
				wants_to_increase_tolerance_gnomish = yes
			}
			modifier = {
				factor = 0.5
				NOT = { years_of_income = 0.25 }
			}
		}
		add_years_of_income = -0.25
		add_adm_power = -50
		add_mil_power = -50
		large_decrease_of_gnomish_tolerance_effect = yes
	}
}